[
  {
    "title": "Interdit aux moins de 12 ans"
  },
  {
    "title": "Interdit aux moins de 16 ans"
  },
  {
    "title": "Interdit aux moins de 18 ans"
  },
  {
    "title": "Interdit aux moins de 21 ans"
  },
  {
    "title": "Tous publics"
  },
  {
    "title": "Risque d'epilepsie"
  }
]